{
	"info": {
		"_postman_id": "4d633469-e8cf-47d4-abea-3ce129a659c4",
		"name": "Api Sales",
		"schema": "https://schema.getpostman.com/json/collection/v2.1.0/collection.json",
		"_exporter_id": "4628628",
		"_collection_link": "https://lunar-equinox-458545.postman.co/workspace/Team-Workspace~47cc80c6-584f-456a-86b5-6bac21df1ef7/collection/4628628-4d633469-e8cf-47d4-abea-3ce129a659c4?action=share&source=collection_link&creator=4628628"
	},
	"item": [
		{
			"name": "Auth",
			"item": [
				{
					"name": "Login",
					"request": {
						"method": "POST",
						"header": [],
						"body": {
							"mode": "raw",
							"raw": "{\r\n    \"email\":\"facu_ad@hotmail.com\",\r\n    \"password\":\"facundenks10\"\r\n}",
							"options": {
								"raw": {
									"language": "json"
								}
							}
						},
						"url": {
							"raw": "localhost:8000/api/auth/login",
							"host": [
								"localhost"
							],
							"port": "8000",
							"path": [
								"api",
								"auth",
								"login"
							]
						}
					},
					"response": []
				}
			]
		},
		{
			"name": "Users",
			"item": [
				{
					"name": "Create User",
					"request": {
						"method": "POST",
						"header": [],
						"body": {
							"mode": "raw",
							"raw": "{\r\n    \"firstName\":\"Adrian\",\r\n    \"lastName\":\"Valdez\",\r\n    \"picture\":\"Imagen\",\r\n    \"email\":\"adrian@hotmail.com\",\r\n    \"password\":\"facundenks10\",\r\n    \"address\":\"facundenks\"\r\n}",
							"options": {
								"raw": {
									"language": "json"
								}
							}
						},
						"url": {
							"raw": "localhost:8000/api/users/register",
							"host": [
								"localhost"
							],
							"port": "8000",
							"path": [
								"api",
								"users",
								"register"
							]
						}
					},
					"response": []
				},
				{
					"name": "Get by id",
					"request": {
						"method": "GET",
						"header": []
					},
					"response": []
				},
				{
					"name": "Get all",
					"request": {
						"method": "GET",
						"header": []
					},
					"response": []
				}
			]
		},
		{
			"name": "Products",
			"item": [
				{
					"name": "Create Product",
					"request": {
						"method": "POST",
						"header": []
					},
					"response": []
				},
				{
					"name": "Get by id",
					"request": {
						"method": "GET",
						"header": []
					},
					"response": []
				},
				{
					"name": "Get Filter Page",
					"request": {
						"method": "GET",
						"header": []
					},
					"response": []
				},
				{
					"name": "Update stock",
					"request": {
						"method": "PUT",
						"header": []
					},
					"response": []
				}
			]
		},
		{
			"name": "Shopping",
			"item": [
				{
					"name": "Add Cart Items",
					"request": {
						"method": "POST",
						"header": [
							{
								"key": "jwt",
								"value": "eyJhbGciOiJIUzI1NiIsInR5cCI6IkpXVCJ9.eyJzdWIiOiIxMjU2Mjg1Yy04NWFjLTQ4MWEtYmRkNC00YWMxZDA4NDM2Y2UiLCJmaXJzdE5hbWUiOiJGYWN1IiwibGFzdE5hbWUiOiJWYWxkZXoiLCJwaWN0dXJlIjoiSW1hZ2VuIiwibGV2ZWxBdXRob3JpdHkiOiJDTElFTlQiLCJpYXQiOjE3MDk5NTQ2NDYsImV4cCI6MTcxMDA0MTA0Nn0.n4f0BcRwO1CciiftVAC5hWVEZgIAof67BBp4EG9Md1c",
								"type": "text"
							}
						],
						"body": {
							"mode": "raw",
							"raw": "{\r\n    \"userId\":\"1256285c-85ac-481a-bdd4-4ac1d08436ce\",\r\n    \"products\": [\r\n        {\r\n            \"product_id\":\"9998936b-3534-4737-8942-b0b0b8d510fb\",\r\n            \"quantity\": 10\r\n        }\r\n    ]\r\n}",
							"options": {
								"raw": {
									"language": "json"
								}
							}
						},
						"url": {
							"raw": "localhost:8000/api/shopping-session/register_cart_itemms",
							"host": [
								"localhost"
							],
							"port": "8000",
							"path": [
								"api",
								"shopping-session",
								"register_cart_itemms"
							]
						}
					},
					"response": []
				}
			]
		},
		{
			"name": "Cart Items",
			"item": [
				{
					"name": "Delete Cart Item",
					"request": {
						"method": "DELETE",
						"header": [
							{
								"key": "jwt",
								"value": "eyJhbGciOiJIUzI1NiIsInR5cCI6IkpXVCJ9.eyJzdWIiOiIxMjU2Mjg1Yy04NWFjLTQ4MWEtYmRkNC00YWMxZDA4NDM2Y2UiLCJmaXJzdE5hbWUiOiJGYWN1IiwibGFzdE5hbWUiOiJWYWxkZXoiLCJwaWN0dXJlIjoiSW1hZ2VuIiwibGV2ZWxBdXRob3JpdHkiOiJBRE1JTiIsImlhdCI6MTcxMDE3OTA5OCwiZXhwIjoxNzEwMjY1NDk4fQ.UatHOxI3bWDEPOQYScJVuBeI6VbLDTkGfHNXxl92dqE",
								"type": "text"
							}
						],
						"url": {
							"raw": "localhost:8000/api/cart-items/delete/:id",
							"host": [
								"localhost"
							],
							"port": "8000",
							"path": [
								"api",
								"cart-items",
								"delete",
								":id"
							],
							"variable": [
								{
									"key": "id",
									"value": "a51bd3f2-40ac-40a5-acca-47dc1b9cc37b"
								}
							]
						}
					},
					"response": []
				},
				{
					"name": "Get Cart Item by Id",
					"request": {
						"method": "GET",
						"header": [
							{
								"key": "jwt",
								"value": "eyJhbGciOiJIUzI1NiIsInR5cCI6IkpXVCJ9.eyJzdWIiOiIxMjU2Mjg1Yy04NWFjLTQ4MWEtYmRkNC00YWMxZDA4NDM2Y2UiLCJmaXJzdE5hbWUiOiJGYWN1IiwibGFzdE5hbWUiOiJWYWxkZXoiLCJwaWN0dXJlIjoiSW1hZ2VuIiwibGV2ZWxBdXRob3JpdHkiOiJBRE1JTiIsImlhdCI6MTcxMDE3OTU4NiwiZXhwIjoxNzEwMjY1OTg2fQ.OTj3tyReSWchC_c4QhhF7abU5ZmMWPxmRDTtADvqXwI",
								"type": "text"
							}
						],
						"url": {
							"raw": "localhost:8000/api/cart-items/:id",
							"host": [
								"localhost"
							],
							"port": "8000",
							"path": [
								"api",
								"cart-items",
								":id"
							],
							"variable": [
								{
									"key": "id",
									"value": "a51bd3f2-40ac-40a5-acca-47dc1b9cc37b"
								}
							]
						}
					},
					"response": []
				},
				{
					"name": "Delete Cart Items",
					"request": {
						"method": "DELETE",
						"header": [],
						"url": {
							"raw": "localhost:8000/api/cart-items/delete_cart_items",
							"host": [
								"localhost"
							],
							"port": "8000",
							"path": [
								"api",
								"cart-items",
								"delete_cart_items"
							]
						}
					},
					"response": []
				}
			]
		},
		{
			"name": "Orders",
			"item": [
				{
					"name": "Register Order",
					"request": {
						"method": "POST",
						"header": [
							{
								"key": "jwt",
								"value": "eyJhbGciOiJIUzI1NiIsInR5cCI6IkpXVCJ9.eyJzdWIiOiIxMjU2Mjg1Yy04NWFjLTQ4MWEtYmRkNC00YWMxZDA4NDM2Y2UiLCJmaXJzdE5hbWUiOiJGYWN1IiwibGFzdE5hbWUiOiJWYWxkZXoiLCJwaWN0dXJlIjoiSW1hZ2VuIiwibGV2ZWxBdXRob3JpdHkiOiJBRE1JTiIsImlhdCI6MTcxMDMzNzA3MSwiZXhwIjoxNzEwNDIzNDcxfQ.bAe806k_h9AA9_bumGBx6V9Z9GrXTUJi_2SqdRPO6E0",
								"type": "text"
							}
						],
						"url": {
							"raw": "localhost:8000/api/orders/create",
							"host": [
								"localhost"
							],
							"port": "8000",
							"path": [
								"api",
								"orders",
								"create"
							]
						}
					},
					"response": []
				},
				{
					"name": "Get Filter Page",
					"request": {
						"method": "GET",
						"header": [
							{
								"key": "jwt",
								"value": "",
								"type": "text"
							}
						],
						"url": {
							"raw": "localhost:8000/api/orders/all?orderStatus=&orderDate&currentPage=1&pageSize=2",
							"host": [
								"localhost"
							],
							"port": "8000",
							"path": [
								"api",
								"orders",
								"all"
							],
							"query": [
								{
									"key": "orderStatus",
									"value": ""
								},
								{
									"key": "orderDate",
									"value": null
								},
								{
									"key": "currentPage",
									"value": "1"
								},
								{
									"key": "pageSize",
									"value": "2"
								}
							]
						}
					},
					"response": []
				},
				{
					"name": "Update Order Approved",
					"request": {
						"method": "PUT",
						"header": [
							{
								"key": "jwt",
								"value": "",
								"type": "text"
							}
						],
						"url": {
							"raw": "localhost:8000/api/orders/update/:id",
							"host": [
								"localhost"
							],
							"port": "8000",
							"path": [
								"api",
								"orders",
								"update",
								":id"
							],
							"variable": [
								{
									"key": "id",
									"value": ""
								}
							]
						}
					},
					"response": []
				},
				{
					"name": "Update Order Cancel",
					"request": {
						"method": "PUT",
						"header": [
							{
								"key": "jwt",
								"value": "",
								"type": "text"
							}
						],
						"url": {
							"raw": "localhost:8000/api/orders/edit-cancel/:id",
							"host": [
								"localhost"
							],
							"port": "8000",
							"path": [
								"api",
								"orders",
								"edit-cancel",
								":id"
							],
							"variable": [
								{
									"key": "id",
									"value": ""
								}
							]
						}
					},
					"response": []
				}
			]
		}
	]
}